<?xml version="1.0" encoding="UTF-8"?>
<glyph name="Z" format="1">
  <advance width="566"/>
  <unicode hex="005A"/>
  <outline>
    <contour>
      <point x="535" y="191" type="line"/>
      <point x="526" y="193"/>
      <point x="513" y="194"/>
      <point x="500" y="194" type="curve" smooth="yes"/>
      <point x="487" y="194"/>
      <point x="472" y="193"/>
      <point x="460" y="190" type="curve"/>
      <point x="448" y="138"/>
      <point x="429" y="89"/>
      <point x="408" y="59" type="curve"/>
      <point x="200" y="59" type="line"/>
      <point x="535" y="631" type="line"/>
      <point x="525" y="669" type="line"/>
      <point x="449" y="667"/>
      <point x="375" y="667"/>
      <point x="302" y="667" type="curve" smooth="yes"/>
      <point x="203" y="667"/>
      <point x="88" y="668"/>
      <point x="65" y="669" type="curve"/>
      <point x="28" y="637" type="line"/>
      <point x="40" y="490" type="line"/>
      <point x="56" y="485"/>
      <point x="73" y="482"/>
      <point x="90" y="482" type="curve" smooth="yes"/>
      <point x="102" y="482"/>
      <point x="114" y="483"/>
      <point x="125" y="485" type="curve"/>
      <point x="134" y="541"/>
      <point x="149" y="594"/>
      <point x="161" y="609" type="curve"/>
      <point x="354" y="609" type="line"/>
      <point x="28" y="45" type="line"/>
      <point x="32" y="-2" type="line"/>
      <point x="69" y="0"/>
      <point x="196" y="0"/>
      <point x="261" y="0" type="curve" smooth="yes"/>
      <point x="355" y="0"/>
      <point x="481" y="-2"/>
      <point x="526" y="-2" type="curve"/>
    </contour>
  </outline>
  <lib>
    <dict>
      <key>com.typemytype.robofont.layerData</key>
      <dict>
      </dict>
    </dict>
  </lib>
</glyph>
