<?xml version="1.0" encoding="UTF-8"?>
<glyph name="period" format="1">
  <advance width="199"/>
  <unicode hex="002E"/>
  <outline>
    <contour>
      <point x="68" y="109" type="curve" smooth="yes"/>
      <point x="30" y="109"/>
      <point x="8" y="74"/>
      <point x="8" y="36" type="curve" smooth="yes"/>
      <point x="8" y="11"/>
      <point x="25" y="-7"/>
      <point x="51" y="-7" type="curve" smooth="yes"/>
      <point x="89" y="-7"/>
      <point x="111" y="28"/>
      <point x="111" y="66" type="curve" smooth="yes"/>
      <point x="111" y="91"/>
      <point x="93" y="109"/>
    </contour>
  </outline>
  <lib>
    <dict>
      <key>com.typemytype.robofont.layerData</key>
      <dict>
      </dict>
    </dict>
  </lib>
</glyph>
