<?xml version="1.0" encoding="UTF-8"?>
<glyph name="edotaccent" format="1">
  <advance width="499"/>
  <unicode hex="0117"/>
  <outline>
    <contour>
      <point x="181" y="210" type="line" smooth="yes"/>
      <point x="363" y="210"/>
      <point x="478" y="280"/>
      <point x="478" y="392" type="curve" smooth="yes"/>
      <point x="478" y="452"/>
      <point x="412" y="492"/>
      <point x="313" y="492" type="curve" smooth="yes"/>
      <point x="137" y="492"/>
      <point x="27" y="375"/>
      <point x="27" y="189" type="curve" smooth="yes"/>
      <point x="27" y="69"/>
      <point x="103" y="-7"/>
      <point x="223" y="-7" type="curve" smooth="yes"/>
      <point x="300" y="-7"/>
      <point x="382" y="24"/>
      <point x="446" y="78" type="curve"/>
      <point x="413" y="117" type="line"/>
      <point x="372" y="84"/>
      <point x="312" y="62"/>
      <point x="262" y="62" type="curve" smooth="yes"/>
      <point x="200" y="62"/>
      <point x="166" y="97"/>
      <point x="166" y="160" type="curve" smooth="yes"/>
      <point x="166" y="173"/>
      <point x="167" y="188"/>
      <point x="170" y="210" type="curve"/>
    </contour>
    <contour>
      <point x="301" y="443" type="curve" smooth="yes"/>
      <point x="335" y="443"/>
      <point x="353" y="425"/>
      <point x="353" y="390" type="curve" smooth="yes"/>
      <point x="353" y="324"/>
      <point x="269" y="271"/>
      <point x="179" y="268" type="curve"/>
      <point x="200" y="378"/>
      <point x="231" y="443"/>
    </contour>
    <contour>
      <point x="320" y="550" type="curve" smooth="yes"/>
      <point x="370" y="550"/>
      <point x="403" y="581"/>
      <point x="403" y="634" type="curve" smooth="yes"/>
      <point x="403" y="667"/>
      <point x="378" y="690"/>
      <point x="338" y="690" type="curve" smooth="yes"/>
      <point x="288" y="690"/>
      <point x="255" y="659"/>
      <point x="255" y="606" type="curve" smooth="yes"/>
      <point x="255" y="572"/>
      <point x="280" y="550"/>
    </contour>
  </outline>
  <lib>
    <dict>
      <key>com.typemytype.robofont.layerData</key>
      <dict>
      </dict>
    </dict>
  </lib>
</glyph>
