<?xml version="1.0" encoding="UTF-8"?>
<glyph name="uni02C9" format="1">
  <advance width="361"/>
  <unicode hex="02C9"/>
  <outline>
    <contour>
      <point x="80" y="578" type="line"/>
      <point x="391" y="578" type="line"/>
      <point x="402" y="646" type="line"/>
      <point x="91" y="646" type="line"/>
    </contour>
  </outline>
  <lib>
    <dict>
      <key>com.typemytype.robofont.layerData</key>
      <dict>
      </dict>
    </dict>
  </lib>
</glyph>
